%YAML 1.1
%TAG !u! tag:unity3d.com,2011:
--- !u!1 &4441770965956821331
GameObject:
  m_ObjectHideFlags: 0
  m_CorrespondingSourceObject: {fileID: 0}
  m_PrefabInstance: {fileID: 0}
  m_PrefabAsset: {fileID: 0}
  serializedVersion: 6
  m_Component:
  - component: {fileID: 4570296853985625905}
  - component: {fileID: 3234723020297280804}
  - component: {fileID: 255306965047531674}
  m_Layer: 0
  m_Name: Layer1
  m_TagString: Untagged
  m_Icon: {fileID: 0}
  m_NavMeshLayer: 0
  m_StaticEditorFlags: 0
  m_IsActive: 1
--- !u!4 &4570296853985625905
Transform:
  m_ObjectHideFlags: 0
  m_CorrespondingSourceObject: {fileID: 0}
  m_PrefabInstance: {fileID: 0}
  m_PrefabAsset: {fileID: 0}
  m_GameObject: {fileID: 4441770965956821331}
  m_LocalRotation: {x: -0, y: -0, z: -0, w: 1}
  m_LocalPosition: {x: 0, y: 0, z: 0}
  m_LocalScale: {x: 1, y: 1, z: 1}
  m_Children: []
  m_Father: {fileID: 8487500285077700464}
  m_RootOrder: 0
  m_LocalEulerAnglesHint: {x: 0, y: 0, z: 0}
--- !u!1839735485 &3234723020297280804
Tilemap:
  m_ObjectHideFlags: 0
  m_CorrespondingSourceObject: {fileID: 0}
  m_PrefabInstance: {fileID: 0}
  m_PrefabAsset: {fileID: 0}
  m_GameObject: {fileID: 4441770965956821331}
  m_Enabled: 1
  m_Tiles:
  - first: {x: 2, y: -11, z: 0}
    second:
      serializedVersion: 2
      m_TileIndex: 33
      m_TileSpriteIndex: 34
      m_TileMatrixIndex: 0
      m_TileColorIndex: 0
      m_TileObjectToInstantiateIndex: 65535
      m_AllTileFlags: 1073741825
  - first: {x: 2, y: -10, z: 0}
    second:
      serializedVersion: 2
      m_TileIndex: 32
      m_TileSpriteIndex: 33
      m_TileMatrixIndex: 0
      m_TileColorIndex: 0
      m_TileObjectToInstantiateIndex: 65535
      m_AllTileFlags: 1073741825
  - first: {x: 0, y: -9, z: 0}
    second:
      serializedVersion: 2
      m_TileIndex: 31
      m_TileSpriteIndex: 32
      m_TileMatrixIndex: 0
      m_TileColorIndex: 0
      m_TileObjectToInstantiateIndex: 65535
      m_AllTileFlags: 1073741825
  - first: {x: 1, y: -9, z: 0}
    second:
      serializedVersion: 2
      m_TileIndex: 30
      m_TileSpriteIndex: 31
      m_TileMatrixIndex: 0
      m_TileColorIndex: 0
      m_TileObjectToInstantiateIndex: 65535
      m_AllTileFlags: 1073741825
  - first: {x: 2, y: -9, z: 0}
    second:
      serializedVersion: 2
      m_TileIndex: 29
      m_TileSpriteIndex: 30
      m_TileMatrixIndex: 0
      m_TileColorIndex: 0
      m_TileObjectToInstantiateIndex: 65535
      m_AllTileFlags: 1073741825
  - first: {x: 8, y: -8, z: 0}
    second:
      serializedVersion: 2
      m_TileIndex: 38
      m_TileSpriteIndex: 38
      m_TileMatrixIndex: 0
      m_TileColorIndex: 0
      m_TileObjectToInstantiateIndex: 65535
      m_AllTileFlags: 1073741825
  - first: {x: 10, y: -8, z: 0}
    second:
      serializedVersion: 2
      m_TileIndex: 37
      m_TileSpriteIndex: 37
      m_TileMatrixIndex: 0
      m_TileColorIndex: 0
      m_TileObjectToInstantiateIndex: 65535
      m_AllTileFlags: 1073741825
  - first: {x: 12, y: -8, z: 0}
    second:
      serializedVersion: 2
      m_TileIndex: 34
      m_TileSpriteIndex: 35
      m_TileMatrixIndex: 0
      m_TileColorIndex: 0
      m_TileObjectToInstantiateIndex: 65535
      m_AllTileFlags: 1073741825
  - first: {x: 0, y: -7, z: 0}
    second:
      serializedVersion: 2
      m_TileIndex: 28
      m_TileSpriteIndex: 29
      m_TileMatrixIndex: 0
      m_TileColorIndex: 0
      m_TileObjectToInstantiateIndex: 65535
      m_AllTileFlags: 1073741825
  - first: {x: 2, y: -7, z: 0}
    second:
      serializedVersion: 2
      m_TileIndex: 27
      m_TileSpriteIndex: 28
      m_TileMatrixIndex: 0
      m_TileColorIndex: 0
      m_TileObjectToInstantiateIndex: 65535
      m_AllTileFlags: 1073741825
  - first: {x: 4, y: -7, z: 0}
    second:
      serializedVersion: 2
      m_TileIndex: 26
      m_TileSpriteIndex: 27
      m_TileMatrixIndex: 0
      m_TileColorIndex: 0
      m_TileObjectToInstantiateIndex: 65535
      m_AllTileFlags: 1073741825
  - first: {x: 0, y: -6, z: 0}
    second:
      serializedVersion: 2
      m_TileIndex: 25
      m_TileSpriteIndex: 26
      m_TileMatrixIndex: 0
      m_TileColorIndex: 0
      m_TileObjectToInstantiateIndex: 65535
      m_AllTileFlags: 1073741825
  - first: {x: 2, y: -6, z: 0}
    second:
      serializedVersion: 2
      m_TileIndex: 24
      m_TileSpriteIndex: 25
      m_TileMatrixIndex: 0
      m_TileColorIndex: 0
      m_TileObjectToInstantiateIndex: 65535
      m_AllTileFlags: 1073741825
  - first: {x: 4, y: -6, z: 0}
    second:
      serializedVersion: 2
      m_TileIndex: 23
      m_TileSpriteIndex: 24
      m_TileMatrixIndex: 0
      m_TileColorIndex: 0
      m_TileObjectToInstantiateIndex: 65535
      m_AllTileFlags: 1073741825
  - first: {x: 0, y: -5, z: 0}
    second:
      serializedVersion: 2
      m_TileIndex: 22
      m_TileSpriteIndex: 23
      m_TileMatrixIndex: 0
      m_TileColorIndex: 0
      m_TileObjectToInstantiateIndex: 65535
      m_AllTileFlags: 1073741825
  - first: {x: 2, y: -5, z: 0}
    second:
      serializedVersion: 2
      m_TileIndex: 21
      m_TileSpriteIndex: 22
      m_TileMatrixIndex: 0
      m_TileColorIndex: 0
      m_TileObjectToInstantiateIndex: 65535
      m_AllTileFlags: 1073741825
  - first: {x: 4, y: -5, z: 0}
    second:
      serializedVersion: 2
      m_TileIndex: 20
      m_TileSpriteIndex: 21
      m_TileMatrixIndex: 0
      m_TileColorIndex: 0
      m_TileObjectToInstantiateIndex: 65535
      m_AllTileFlags: 1073741825
  - first: {x: 8, y: -5, z: 0}
    second:
      serializedVersion: 2
      m_TileIndex: 58
      m_TileSpriteIndex: 56
      m_TileMatrixIndex: 0
      m_TileColorIndex: 0
      m_TileObjectToInstantiateIndex: 65535
      m_AllTileFlags: 1073741825
  - first: {x: 10, y: -5, z: 0}
    second:
      serializedVersion: 2
      m_TileIndex: 57
      m_TileSpriteIndex: 58
      m_TileMatrixIndex: 0
      m_TileColorIndex: 0
      m_TileObjectToInstantiateIndex: 65535
      m_AllTileFlags: 1073741825
  - first: {x: 12, y: -5, z: 0}
    second:
      serializedVersion: 2
      m_TileIndex: 39
      m_TileSpriteIndex: 40
      m_TileMatrixIndex: 0
      m_TileColorIndex: 0
      m_TileObjectToInstantiateIndex: 65535
      m_AllTileFlags: 1073741825
  - first: {x: 0, y: -4, z: 0}
    second:
      serializedVersion: 2
      m_TileIndex: 19
      m_TileSpriteIndex: 20
      m_TileMatrixIndex: 0
      m_TileColorIndex: 0
      m_TileObjectToInstantiateIndex: 65535
      m_AllTileFlags: 1073741825
  - first: {x: 2, y: -4, z: 0}
    second:
      serializedVersion: 2
      m_TileIndex: 18
      m_TileSpriteIndex: 19
      m_TileMatrixIndex: 0
      m_TileColorIndex: 0
      m_TileObjectToInstantiateIndex: 65535
      m_AllTileFlags: 1073741825
  - first: {x: 4, y: -4, z: 0}
    second:
      serializedVersion: 2
      m_TileIndex: 17
      m_TileSpriteIndex: 18
      m_TileMatrixIndex: 0
      m_TileColorIndex: 0
      m_TileObjectToInstantiateIndex: 65535
      m_AllTileFlags: 1073741825
  - first: {x: 0, y: -3, z: 0}
    second:
      serializedVersion: 2
      m_TileIndex: 16
      m_TileSpriteIndex: 16
      m_TileMatrixIndex: 0
      m_TileColorIndex: 0
      m_TileObjectToInstantiateIndex: 65535
      m_AllTileFlags: 1073741825
  - first: {x: 2, y: -3, z: 0}
    second:
      serializedVersion: 2
      m_TileIndex: 15
      m_TileSpriteIndex: 15
      m_TileMatrixIndex: 0
      m_TileColorIndex: 0
      m_TileObjectToInstantiateIndex: 65535
      m_AllTileFlags: 1073741825
  - first: {x: 4, y: -3, z: 0}
    second:
      serializedVersion: 2
      m_TileIndex: 12
      m_TileSpriteIndex: 14
      m_TileMatrixIndex: 0
      m_TileColorIndex: 0
      m_TileObjectToInstantiateIndex: 65535
      m_AllTileFlags: 1073741825
  - first: {x: 0, y: -2, z: 0}
    second:
      serializedVersion: 2
      m_TileIndex: 8
      m_TileSpriteIndex: 13
      m_TileMatrixIndex: 0
      m_TileColorIndex: 0
      m_TileObjectToInstantiateIndex: 65535
      m_AllTileFlags: 1073741825
  - first: {x: 2, y: -2, z: 0}
    second:
      serializedVersion: 2
      m_TileIndex: 5
      m_TileSpriteIndex: 12
      m_TileMatrixIndex: 0
      m_TileColorIndex: 0
      m_TileObjectToInstantiateIndex: 65535
      m_AllTileFlags: 1073741825
  - first: {x: 4, y: -2, z: 0}
    second:
      serializedVersion: 2
      m_TileIndex: 4
      m_TileSpriteIndex: 11
      m_TileMatrixIndex: 0
      m_TileColorIndex: 0
      m_TileObjectToInstantiateIndex: 65535
      m_AllTileFlags: 1073741825
  - first: {x: 8, y: -2, z: 0}
    second:
      serializedVersion: 2
      m_TileIndex: 52
      m_TileSpriteIndex: 52
      m_TileMatrixIndex: 0
      m_TileColorIndex: 0
      m_TileObjectToInstantiateIndex: 65535
      m_AllTileFlags: 1073741825
  - first: {x: 9, y: -2, z: 0}
    second:
      serializedVersion: 2
      m_TileIndex: 51
      m_TileSpriteIndex: 51
      m_TileMatrixIndex: 0
      m_TileColorIndex: 0
      m_TileObjectToInstantiateIndex: 65535
      m_AllTileFlags: 1073741825
  - first: {x: 11, y: -2, z: 0}
    second:
      serializedVersion: 2
      m_TileIndex: 40
      m_TileSpriteIndex: 39
      m_TileMatrixIndex: 0
      m_TileColorIndex: 0
      m_TileObjectToInstantiateIndex: 65535
      m_AllTileFlags: 1073741825
  - first: {x: 15, y: -2, z: 0}
    second:
      serializedVersion: 2
      m_TileIndex: 56
      m_TileSpriteIndex: 57
      m_TileMatrixIndex: 0
      m_TileColorIndex: 0
      m_TileObjectToInstantiateIndex: 65535
      m_AllTileFlags: 1073741825
  - first: {x: 17, y: -2, z: 0}
    second:
      serializedVersion: 2
      m_TileIndex: 55
      m_TileSpriteIndex: 55
      m_TileMatrixIndex: 0
      m_TileColorIndex: 0
      m_TileObjectToInstantiateIndex: 65535
      m_AllTileFlags: 1073741825
  - first: {x: 0, y: 0, z: 0}
    second:
      serializedVersion: 2
      m_TileIndex: 3
      m_TileSpriteIndex: 4
      m_TileMatrixIndex: 0
      m_TileColorIndex: 0
      m_TileObjectToInstantiateIndex: 65535
      m_AllTileFlags: 1073741825
  - first: {x: 2, y: 0, z: 0}
    second:
      serializedVersion: 2
      m_TileIndex: 2
      m_TileSpriteIndex: 2
      m_TileMatrixIndex: 0
      m_TileColorIndex: 0
      m_TileObjectToInstantiateIndex: 65535
      m_AllTileFlags: 1073741825
  - first: {x: 4, y: 0, z: 0}
    second:
      serializedVersion: 2
      m_TileIndex: 1
      m_TileSpriteIndex: 0
      m_TileMatrixIndex: 0
      m_TileColorIndex: 0
      m_TileObjectToInstantiateIndex: 65535
      m_AllTileFlags: 1073741825
  - first: {x: 6, y: 0, z: 0}
    second:
      serializedVersion: 2
      m_TileIndex: 36
      m_TileSpriteIndex: 17
      m_TileMatrixIndex: 0
      m_TileColorIndex: 0
      m_TileObjectToInstantiateIndex: 65535
      m_AllTileFlags: 1073741825
  - first: {x: 15, y: 0, z: 0}
    second:
      serializedVersion: 2
      m_TileIndex: 54
      m_TileSpriteIndex: 54
      m_TileMatrixIndex: 0
      m_TileColorIndex: 0
      m_TileObjectToInstantiateIndex: 65535
      m_AllTileFlags: 1073741825
  - first: {x: 17, y: 0, z: 0}
    second:
      serializedVersion: 2
      m_TileIndex: 53
      m_TileSpriteIndex: 53
      m_TileMatrixIndex: 0
      m_TileColorIndex: 0
      m_TileObjectToInstantiateIndex: 65535
      m_AllTileFlags: 1073741825
  - first: {x: 8, y: 1, z: 0}
    second:
      serializedVersion: 2
      m_TileIndex: 45
      m_TileSpriteIndex: 50
      m_TileMatrixIndex: 0
      m_TileColorIndex: 0
      m_TileObjectToInstantiateIndex: 65535
      m_AllTileFlags: 1073741825
  - first: {x: 9, y: 1, z: 0}
    second:
      serializedVersion: 2
      m_TileIndex: 44
      m_TileSpriteIndex: 49
      m_TileMatrixIndex: 0
      m_TileColorIndex: 0
      m_TileObjectToInstantiateIndex: 65535
      m_AllTileFlags: 1073741825
  - first: {x: 10, y: 1, z: 0}
    second:
      serializedVersion: 2
      m_TileIndex: 43
      m_TileSpriteIndex: 48
      m_TileMatrixIndex: 0
      m_TileColorIndex: 0
      m_TileObjectToInstantiateIndex: 65535
      m_AllTileFlags: 1073741825
  - first: {x: 11, y: 1, z: 0}
    second:
      serializedVersion: 2
      m_TileIndex: 42
      m_TileSpriteIndex: 47
      m_TileMatrixIndex: 0
      m_TileColorIndex: 0
      m_TileObjectToInstantiateIndex: 65535
      m_AllTileFlags: 1073741825
  - first: {x: 12, y: 1, z: 0}
    second:
      serializedVersion: 2
      m_TileIndex: 41
      m_TileSpriteIndex: 45
      m_TileMatrixIndex: 0
      m_TileColorIndex: 0
      m_TileObjectToInstantiateIndex: 65535
      m_AllTileFlags: 1073741825
  - first: {x: 0, y: 2, z: 0}
    second:
      serializedVersion: 2
      m_TileIndex: 14
      m_TileSpriteIndex: 10
      m_TileMatrixIndex: 0
      m_TileColorIndex: 0
      m_TileObjectToInstantiateIndex: 65535
      m_AllTileFlags: 1073741825
  - first: {x: 1, y: 2, z: 0}
    second:
      serializedVersion: 2
      m_TileIndex: 13
      m_TileSpriteIndex: 9
      m_TileMatrixIndex: 0
      m_TileColorIndex: 0
      m_TileObjectToInstantiateIndex: 65535
      m_AllTileFlags: 1073741825
  - first: {x: 3, y: 2, z: 0}
    second:
      serializedVersion: 2
      m_TileIndex: 11
      m_TileSpriteIndex: 8
      m_TileMatrixIndex: 0
      m_TileColorIndex: 0
      m_TileObjectToInstantiateIndex: 65535
      m_AllTileFlags: 1073741825
  - first: {x: 0, y: 4, z: 0}
    second:
      serializedVersion: 2
      m_TileIndex: 10
      m_TileSpriteIndex: 7
      m_TileMatrixIndex: 0
      m_TileColorIndex: 0
      m_TileObjectToInstantiateIndex: 65535
      m_AllTileFlags: 1073741825
  - first: {x: 1, y: 4, z: 0}
    second:
      serializedVersion: 2
      m_TileIndex: 9
      m_TileSpriteIndex: 6
      m_TileMatrixIndex: 0
      m_TileColorIndex: 0
      m_TileObjectToInstantiateIndex: 65535
      m_AllTileFlags: 1073741825
  - first: {x: 2, y: 4, z: 0}
    second:
      serializedVersion: 2
      m_TileIndex: 7
      m_TileSpriteIndex: 5
      m_TileMatrixIndex: 0
      m_TileColorIndex: 0
      m_TileObjectToInstantiateIndex: 65535
      m_AllTileFlags: 1073741825
  - first: {x: 3, y: 4, z: 0}
    second:
      serializedVersion: 2
      m_TileIndex: 6
      m_TileSpriteIndex: 3
      m_TileMatrixIndex: 0
      m_TileColorIndex: 0
      m_TileObjectToInstantiateIndex: 65535
      m_AllTileFlags: 1073741825
  - first: {x: 4, y: 4, z: 0}
    second:
      serializedVersion: 2
      m_TileIndex: 0
      m_TileSpriteIndex: 1
      m_TileMatrixIndex: 0
      m_TileColorIndex: 0
      m_TileObjectToInstantiateIndex: 65535
      m_AllTileFlags: 1073741825
  - first: {x: 8, y: 4, z: 0}
    second:
      serializedVersion: 2
      m_TileIndex: 50
      m_TileSpriteIndex: 46
      m_TileMatrixIndex: 0
      m_TileColorIndex: 0
      m_TileObjectToInstantiateIndex: 65535
      m_AllTileFlags: 1073741825
  - first: {x: 9, y: 4, z: 0}
    second:
      serializedVersion: 2
      m_TileIndex: 49
      m_TileSpriteIndex: 44
      m_TileMatrixIndex: 0
      m_TileColorIndex: 0
      m_TileObjectToInstantiateIndex: 65535
      m_AllTileFlags: 1073741825
  - first: {x: 10, y: 4, z: 0}
    second:
      serializedVersion: 2
      m_TileIndex: 48
      m_TileSpriteIndex: 43
      m_TileMatrixIndex: 0
      m_TileColorIndex: 0
      m_TileObjectToInstantiateIndex: 65535
      m_AllTileFlags: 1073741825
  - first: {x: 11, y: 4, z: 0}
    second:
      serializedVersion: 2
      m_TileIndex: 47
      m_TileSpriteIndex: 42
      m_TileMatrixIndex: 0
      m_TileColorIndex: 0
      m_TileObjectToInstantiateIndex: 65535
      m_AllTileFlags: 1073741825
  - first: {x: 12, y: 4, z: 0}
    second:
      serializedVersion: 2
      m_TileIndex: 46
      m_TileSpriteIndex: 41
      m_TileMatrixIndex: 0
      m_TileColorIndex: 0
      m_TileObjectToInstantiateIndex: 65535
      m_AllTileFlags: 1073741825
  - first: {x: 15, y: 4, z: 0}
    second:
      serializedVersion: 2
      m_TileIndex: 35
      m_TileSpriteIndex: 36
      m_TileMatrixIndex: 0
      m_TileColorIndex: 0
      m_TileObjectToInstantiateIndex: 65535
      m_AllTileFlags: 1073741825
  m_AnimatedTiles: {}
  m_TileAssetArray:
  - m_RefCount: 1
    m_Data: {fileID: 11400000, guid: 43c82f886538a424b801cb66ba7743d4, type: 2}
  - m_RefCount: 1
    m_Data: {fileID: 11400000, guid: 55b889966f42fd24ca94552f0bdd9bf8, type: 2}
  - m_RefCount: 1
    m_Data: {fileID: 11400000, guid: 625561a2cd2ad274db97d9b3363db28b, type: 2}
  - m_RefCount: 1
    m_Data: {fileID: 11400000, guid: 5516f2d4384162740a4f02fb98c610e4, type: 2}
  - m_RefCount: 1
    m_Data: {fileID: 11400000, guid: 2078d66f358de5246b65d3ea0a69555d, type: 2}
  - m_RefCount: 1
    m_Data: {fileID: 11400000, guid: 24c6724a8f38c5a4f974a0729b45c768, type: 2}
  - m_RefCount: 1
    m_Data: {fileID: 11400000, guid: d33e7a2fe80a9fb4f8e9445fb1e43188, type: 2}
  - m_RefCount: 1
    m_Data: {fileID: 11400000, guid: 090aeb93ad8a2b24ca0846f875b43a77, type: 2}
  - m_RefCount: 1
    m_Data: {fileID: 11400000, guid: 9d82c5441918e854c9030f0514984536, type: 2}
  - m_RefCount: 1
    m_Data: {fileID: 11400000, guid: 96ae0d9cc53d75c4e89aa8da043b45f6, type: 2}
  - m_RefCount: 1
    m_Data: {fileID: 11400000, guid: 2a43b57231f3ccd49a2fe3789d2d6fa6, type: 2}
  - m_RefCount: 1
    m_Data: {fileID: 11400000, guid: 3c0156f999eeb1b43b61166035ad59bb, type: 2}
  - m_RefCount: 1
    m_Data: {fileID: 11400000, guid: 71c7b5b54bb591746a9abc97572cb5f3, type: 2}
  - m_RefCount: 1
    m_Data: {fileID: 11400000, guid: 306df38868b46ce42b8a391bbeb6e629, type: 2}
  - m_RefCount: 1
    m_Data: {fileID: 11400000, guid: d53d97ba637020f48910c6e085de313d, type: 2}
  - m_RefCount: 1
    m_Data: {fileID: 11400000, guid: 37fc97281a469e149a724449ababfa56, type: 2}
  - m_RefCount: 1
    m_Data: {fileID: 11400000, guid: 2fc9c7373e439e64bafd0b25f3ac9a37, type: 2}
  - m_RefCount: 1
    m_Data: {fileID: 11400000, guid: ffb1f88970586c44e939010a4ac0103e, type: 2}
  - m_RefCount: 1
    m_Data: {fileID: 11400000, guid: 67c159b7c19573c46ac9c1dbde8056fd, type: 2}
  - m_RefCount: 1
    m_Data: {fileID: 11400000, guid: 35c21c16c5b1d924d9a3fd66d069ea85, type: 2}
  - m_RefCount: 1
    m_Data: {fileID: 11400000, guid: 8d8b416adc9dd02498029d3294724728, type: 2}
  - m_RefCount: 1
    m_Data: {fileID: 11400000, guid: 472e89d75c3e9774bb762f5d46e3550b, type: 2}
  - m_RefCount: 1
    m_Data: {fileID: 11400000, guid: dbe03ca1cbdbdd341a39ad9a2d1e719a, type: 2}
  - m_RefCount: 1
    m_Data: {fileID: 11400000, guid: 61b74a7cfe8ebff448e95bccd16c9f5c, type: 2}
  - m_RefCount: 1
    m_Data: {fileID: 11400000, guid: b3457d4d0313e054e89440a1329a6fa4, type: 2}
  - m_RefCount: 1
    m_Data: {fileID: 11400000, guid: ea06daf594afb9145bccd55021f4f8a7, type: 2}
  - m_RefCount: 1
    m_Data: {fileID: 11400000, guid: fc799127cc4fee34a99470c81c1bdec2, type: 2}
  - m_RefCount: 1
    m_Data: {fileID: 11400000, guid: 31f9ef5250946dd4598d8f288a65b340, type: 2}
  - m_RefCount: 1
    m_Data: {fileID: 11400000, guid: 13c8d642a0ccd904aaa37bcd0a3b622f, type: 2}
  - m_RefCount: 1
    m_Data: {fileID: 11400000, guid: be5e40549e9b454418c7f31613f199b0, type: 2}
  - m_RefCount: 1
    m_Data: {fileID: 11400000, guid: 266ef18a3abab534491024aa74f63c7b, type: 2}
  - m_RefCount: 1
    m_Data: {fileID: 11400000, guid: 5f7b2ff72f7f71542a52c3dc9f28aa2c, type: 2}
  - m_RefCount: 1
    m_Data: {fileID: 11400000, guid: 26551b28df3e9ef488e948a3cda15766, type: 2}
  - m_RefCount: 1
    m_Data: {fileID: 11400000, guid: 0e1729cbf59b452499fc23a9d36e4a82, type: 2}
  - m_RefCount: 1
    m_Data: {fileID: 11400000, guid: 660a844cad6a20843b57781ce800b701, type: 2}
  - m_RefCount: 1
    m_Data: {fileID: 11400000, guid: a330cb22fa26e804bbb98218c18f179f, type: 2}
  - m_RefCount: 1
    m_Data: {fileID: 11400000, guid: 31a17e42e4e470342992cd74095cb3d7, type: 2}
  - m_RefCount: 1
    m_Data: {fileID: 11400000, guid: f1b498d98c3790942bd7fcbfd264df3f, type: 2}
  - m_RefCount: 1
    m_Data: {fileID: 11400000, guid: 0ab32fafc1969664eb401ffb8f026a38, type: 2}
  - m_RefCount: 1
    m_Data: {fileID: 11400000, guid: 592d50a44e7bb674587deca3188d494d, type: 2}
  - m_RefCount: 1
    m_Data: {fileID: 11400000, guid: 4a15d85208b83b74980225730d655b5e, type: 2}
  - m_RefCount: 1
    m_Data: {fileID: 11400000, guid: d87d1a98c164b284da542308caa64ba0, type: 2}
  - m_RefCount: 1
    m_Data: {fileID: 11400000, guid: 12b8568fe02b4c34a9839208a833eea6, type: 2}
  - m_RefCount: 1
    m_Data: {fileID: 11400000, guid: 45c0e50c5dc6df24cb3cc59e3268b0a2, type: 2}
  - m_RefCount: 1
    m_Data: {fileID: 11400000, guid: 2007a760b018ff74ab3fdc5c3ac05aba, type: 2}
  - m_RefCount: 1
    m_Data: {fileID: 11400000, guid: 29089ebd427dd754db877818f3e157b6, type: 2}
  - m_RefCount: 1
    m_Data: {fileID: 11400000, guid: 0199be1855d4420449d66934b001d173, type: 2}
  - m_RefCount: 1
    m_Data: {fileID: 11400000, guid: 7cbacc73c0f3f0049805d13522e6a12d, type: 2}
  - m_RefCount: 1
    m_Data: {fileID: 11400000, guid: 33c75bc72a16adc478ee43adeaf79de3, type: 2}
  - m_RefCount: 1
    m_Data: {fileID: 11400000, guid: 0d5059b12c78d1346ba4a594f21e6d16, type: 2}
  - m_RefCount: 1
    m_Data: {fileID: 11400000, guid: f4f98b6ba4812504485c187cbc73ead1, type: 2}
  - m_RefCount: 1
    m_Data: {fileID: 11400000, guid: 06f73751a017d2546b094584202a8437, type: 2}
  - m_RefCount: 1
    m_Data: {fileID: 11400000, guid: ceb0c6e488734974193ef46516701760, type: 2}
  - m_RefCount: 1
    m_Data: {fileID: 11400000, guid: 5b48fe003f87ced48ae363f0f5596452, type: 2}
  - m_RefCount: 1
    m_Data: {fileID: 11400000, guid: b1283a9765ec7b8499f49f392df44717, type: 2}
  - m_RefCount: 1
    m_Data: {fileID: 11400000, guid: de0c264a09dcd5f409f1483c4e371cfc, type: 2}
  - m_RefCount: 1
    m_Data: {fileID: 11400000, guid: 8a33964464d00fd46ac907042c69e5e8, type: 2}
  - m_RefCount: 1
    m_Data: {fileID: 11400000, guid: 6075a47a416e97642896d365b82d0a95, type: 2}
  - m_RefCount: 1
    m_Data: {fileID: 11400000, guid: a20de702c8f70384f9351b8c9f79836c, type: 2}
  m_TileSpriteArray:
  - m_RefCount: 1
    m_Data: {fileID: 21300000, guid: ea11bd36009f605498f2288b0915a873, type: 3}
  - m_RefCount: 1
    m_Data: {fileID: 21300000, guid: c5e8ad2cccaa2304aa67a7665cef06b4, type: 3}
  - m_RefCount: 1
    m_Data: {fileID: 21300000, guid: ea5d1ff2a4e5b4942b825a90ab2c5123, type: 3}
  - m_RefCount: 1
    m_Data: {fileID: 21300000, guid: 6ecdbac746e8f654ab77f0f70f36d2cb, type: 3}
  - m_RefCount: 1
    m_Data: {fileID: 21300000, guid: 43d4aad50c92a7844b9ad0a04dfc51be, type: 3}
  - m_RefCount: 1
    m_Data: {fileID: 21300000, guid: 2b7b2fc10a4b57d43bdce3236d5da982, type: 3}
  - m_RefCount: 1
    m_Data: {fileID: 21300000, guid: 84a9224c2d7c7394487ff100bb97aff5, type: 3}
  - m_RefCount: 1
    m_Data: {fileID: 21300000, guid: aa96dc972bf77db499e357828c2a7178, type: 3}
  - m_RefCount: 1
    m_Data: {fileID: 21300000, guid: 5582e64e5ea94934baf9aa4e48ce7666, type: 3}
  - m_RefCount: 1
    m_Data: {fileID: 21300000, guid: a75e7a5e30cdc6b49ac13442bd98c4ac, type: 3}
  - m_RefCount: 1
    m_Data: {fileID: 21300000, guid: 6eefe7fcd9086c147a1c089c36ca038d, type: 3}
  - m_RefCount: 1
    m_Data: {fileID: 21300000, guid: 3bb817e6aa9d2e746ab2031d8871da73, type: 3}
  - m_RefCount: 1
    m_Data: {fileID: 21300000, guid: 49635b88dc8b11b40ba771e13809986c, type: 3}
  - m_RefCount: 1
    m_Data: {fileID: 21300000, guid: e3e570e2b14e90149b25706663ff0894, type: 3}
  - m_RefCount: 1
    m_Data: {fileID: 21300000, guid: b8ae7bad68d546048ac7c625fa5371ab, type: 3}
  - m_RefCount: 1
    m_Data: {fileID: 21300000, guid: fd5fa72ede69f4c4fa5a06fa6a1df7ea, type: 3}
  - m_RefCount: 1
    m_Data: {fileID: 21300000, guid: d7d90d6e54dee6f4f91bc5ede9f72151, type: 3}
  - m_RefCount: 1
    m_Data: {fileID: 21300000, guid: 5a2bf4da2dea62a4d99ce164f16f99ba, type: 3}
  - m_RefCount: 1
    m_Data: {fileID: 21300000, guid: 28094ac6deffe8643b2d68e9b5030ec8, type: 3}
  - m_RefCount: 1
    m_Data: {fileID: 21300000, guid: 2528316d4c1e6d14ebb22a5b96bccb27, type: 3}
  - m_RefCount: 1
    m_Data: {fileID: 21300000, guid: 6c0004dc1bc049143bf3fbd2ae9ae5bc, type: 3}
  - m_RefCount: 1
    m_Data: {fileID: 21300000, guid: a69bc05fb49ba61458ff2a337a776782, type: 3}
  - m_RefCount: 1
    m_Data: {fileID: 21300000, guid: e9d6bd18ffc1b5740ba3e6eeaa935c39, type: 3}
  - m_RefCount: 1
    m_Data: {fileID: 21300000, guid: 99204d0a2e25db24c8148f70b6790155, type: 3}
  - m_RefCount: 1
    m_Data: {fileID: 21300000, guid: bb20b1577c32964448f4727a765c4ae7, type: 3}
  - m_RefCount: 1
    m_Data: {fileID: 21300000, guid: bf033c7edeb94d54dbccace2cd0da43a, type: 3}
  - m_RefCount: 1
    m_Data: {fileID: 21300000, guid: 27641cce7e3e3d04fa61a90d19e138c2, type: 3}
  - m_RefCount: 1
    m_Data: {fileID: 21300000, guid: 896e28aaca1c53841a621dffd3211fdf, type: 3}
  - m_RefCount: 1
    m_Data: {fileID: 21300000, guid: a04d9f514a5db364fb050397fa81fe49, type: 3}
  - m_RefCount: 1
    m_Data: {fileID: 21300000, guid: 6d0fd860ada47344987a5874de1cc9ec, type: 3}
  - m_RefCount: 1
    m_Data: {fileID: 21300000, guid: 3f221c4714026b84dbb830e71c63cf0b, type: 3}
  - m_RefCount: 1
    m_Data: {fileID: 21300000, guid: a07a2f66ad3f430448a78332c487190a, type: 3}
  - m_RefCount: 1
    m_Data: {fileID: 21300000, guid: ec61a40d5a1de70469f655c7cc6602d1, type: 3}
  - m_RefCount: 1
    m_Data: {fileID: 21300000, guid: cd35f096a123b0c4193c14be3b4bbfa3, type: 3}
  - m_RefCount: 1
    m_Data: {fileID: 21300000, guid: 8a053da2df1a71949a479ead0a03f5ac, type: 3}
  - m_RefCount: 1
    m_Data: {fileID: 21300000, guid: 3b9a744b5bcdecd45b5ceaf6b7a21309, type: 3}
  - m_RefCount: 1
    m_Data: {fileID: 21300000, guid: e85cb0a4981665b4797a949a1e158424, type: 3}
  - m_RefCount: 1
    m_Data: {fileID: 21300000, guid: c1f15b027d776ba478ef23ee5acf4ca1, type: 3}
  - m_RefCount: 1
    m_Data: {fileID: 21300000, guid: 3086c7c4fcf42f846b242e2e7b7e007d, type: 3}
  - m_RefCount: 1
    m_Data: {fileID: 21300000, guid: 324f344bdb8d39845b78c5d1c7661a4e, type: 3}
  - m_RefCount: 1
    m_Data: {fileID: 21300000, guid: d1d1cd0e32971f74c89f9fd54599cf18, type: 3}
  - m_RefCount: 1
    m_Data: {fileID: 21300000, guid: 9508c960308f5ac4fbe4d549dc0b9cde, type: 3}
  - m_RefCount: 1
    m_Data: {fileID: 21300000, guid: 7ae3e74066cc63f4fbb6d1668c742138, type: 3}
  - m_RefCount: 1
    m_Data: {fileID: 21300000, guid: becb8b93c6dd8194794e75b0775a9e52, type: 3}
  - m_RefCount: 1
    m_Data: {fileID: 21300000, guid: 001bcd2f252c5de4092a9de6d3d50454, type: 3}
  - m_RefCount: 1
    m_Data: {fileID: 21300000, guid: 8eb6ece3f25fb4949bc6e858a5167a42, type: 3}
  - m_RefCount: 1
    m_Data: {fileID: 21300000, guid: 111869924fb11de4584e891d5f5ac5ec, type: 3}
  - m_RefCount: 1
    m_Data: {fileID: 21300000, guid: 9bad3ccaa2f4a9c4babd138aac19f062, type: 3}
  - m_RefCount: 1
    m_Data: {fileID: 21300000, guid: 7bf20ce4e0d55f549aa154145f2c4213, type: 3}
  - m_RefCount: 1
    m_Data: {fileID: 21300000, guid: bf3e5ac7dd212e7478eb2861e454145d, type: 3}
  - m_RefCount: 1
    m_Data: {fileID: 21300000, guid: 53ebba1a6e5586e479302275d628c30c, type: 3}
  - m_RefCount: 1
    m_Data: {fileID: 21300000, guid: 05de6a4550a660a4d9a7eb014cb4a36c, type: 3}
  - m_RefCount: 1
    m_Data: {fileID: 21300000, guid: 3dee71ae3d9dc64458491b098ccc6111, type: 3}
  - m_RefCount: 1
    m_Data: {fileID: 21300000, guid: 742ffae53647fae438266fae8cc26611, type: 3}
  - m_RefCount: 1
    m_Data: {fileID: 21300000, guid: dae384adc4dc4b54182664e43e8a083d, type: 3}
  - m_RefCount: 1
    m_Data: {fileID: 21300000, guid: 680f1fa16cdd7174d9bc73ec35cf9514, type: 3}
  - m_RefCount: 1
    m_Data: {fileID: 21300000, guid: 0cece30d2ac5bde4f967bfa3aae79e69, type: 3}
  - m_RefCount: 1
    m_Data: {fileID: 21300000, guid: 301c52400596c0247844f6e00bebf450, type: 3}
  - m_RefCount: 1
    m_Data: {fileID: 21300000, guid: fc19ae8e4abb1ae4a86d966b9d9b6df7, type: 3}
  m_TileMatrixArray:
  - m_RefCount: 59
    m_Data:
      e00: 1
      e01: 0
      e02: 0
      e03: 0
      e10: 0
      e11: 1
      e12: 0
      e13: 0
      e20: 0
      e21: 0
      e22: 1
      e23: 0
      e30: 0
      e31: 0
      e32: 0
      e33: 1
  m_TileColorArray:
  - m_RefCount: 59
    m_Data: {r: 1, g: 1, b: 1, a: 1}
  m_TileObjectToInstantiateArray: []
  m_AnimationFrameRate: 1
  m_Color: {r: 1, g: 1, b: 1, a: 1}
  m_Origin: {x: -10, y: -13, z: 0}
  m_Size: {x: 28, y: 23, z: 1}
  m_TileAnchor: {x: 1, y: 1, z: 0}
  m_TileOrientation: 0
  m_TileOrientationMatrix:
    e00: 1
    e01: 0
    e02: 0
    e03: 0
    e10: 0
    e11: 1
    e12: 0
    e13: 0
    e20: 0
    e21: 0
    e22: 1
    e23: 0
    e30: 0
    e31: 0
    e32: 0
    e33: 1
--- !u!483693784 &255306965047531674
TilemapRenderer:
  m_ObjectHideFlags: 0
  m_CorrespondingSourceObject: {fileID: 0}
  m_PrefabInstance: {fileID: 0}
  m_PrefabAsset: {fileID: 0}
  m_GameObject: {fileID: 4441770965956821331}
  m_Enabled: 1
  m_CastShadows: 0
  m_ReceiveShadows: 0
  m_DynamicOccludee: 0
  m_MotionVectors: 1
  m_LightProbeUsage: 0
  m_ReflectionProbeUsage: 0
  m_RayTracingMode: 0
  m_RayTraceProcedural: 0
  m_RenderingLayerMask: 1
  m_RendererPriority: 0
  m_Materials:
  - {fileID: 10754, guid: 0000000000000000f000000000000000, type: 0}
  m_StaticBatchInfo:
    firstSubMesh: 0
    subMeshCount: 0
  m_StaticBatchRoot: {fileID: 0}
  m_ProbeAnchor: {fileID: 0}
  m_LightProbeVolumeOverride: {fileID: 0}
  m_ScaleInLightmap: 1
  m_ReceiveGI: 1
  m_PreserveUVs: 0
  m_IgnoreNormalsForChartDetection: 0
  m_ImportantGI: 0
  m_StitchLightmapSeams: 0
  m_SelectedEditorRenderState: 0
  m_MinimumChartSize: 4
  m_AutoUVMaxDistance: 0.5
  m_AutoUVMaxAngle: 89
  m_LightmapParameters: {fileID: 0}
  m_SortingLayerID: 0
  m_SortingLayer: 0
  m_SortingOrder: 0
  m_ChunkSize: {x: 32, y: 32, z: 32}
  m_ChunkCullingBounds: {x: 0, y: 0, z: 0}
  m_MaxChunkCount: 16
  m_MaxFrameAge: 16
  m_SortOrder: 3
  m_Mode: 1
  m_DetectChunkCullingBounds: 0
  m_MaskInteraction: 0
--- !u!1 &8752569541309564953
GameObject:
  m_ObjectHideFlags: 0
  m_CorrespondingSourceObject: {fileID: 0}
  m_PrefabInstance: {fileID: 0}
  m_PrefabAsset: {fileID: 0}
  serializedVersion: 6
  m_Component:
  - component: {fileID: 8487500285077700464}
  - component: {fileID: 2332054447381881592}
  m_Layer: 31
  m_Name: Palette_Biome_Temple
  m_TagString: Untagged
  m_Icon: {fileID: 0}
  m_NavMeshLayer: 0
  m_StaticEditorFlags: 0
  m_IsActive: 1
--- !u!4 &8487500285077700464
Transform:
  m_ObjectHideFlags: 0
  m_CorrespondingSourceObject: {fileID: 0}
  m_PrefabInstance: {fileID: 0}
  m_PrefabAsset: {fileID: 0}
  m_GameObject: {fileID: 8752569541309564953}
  m_LocalRotation: {x: 0, y: 0, z: 0, w: 1}
  m_LocalPosition: {x: 0, y: 0, z: 0}
  m_LocalScale: {x: 1, y: 1, z: 1}
  m_Children:
  - {fileID: 4570296853985625905}
  m_Father: {fileID: 0}
  m_RootOrder: 0
  m_LocalEulerAnglesHint: {x: 0, y: 0, z: 0}
--- !u!156049354 &2332054447381881592
Grid:
  m_ObjectHideFlags: 0
  m_CorrespondingSourceObject: {fileID: 0}
  m_PrefabInstance: {fileID: 0}
  m_PrefabAsset: {fileID: 0}
  m_GameObject: {fileID: 8752569541309564953}
  m_Enabled: 1
  m_CellSize: {x: 1, y: 0.5, z: 1}
  m_CellGap: {x: 0, y: 0, z: 0}
  m_CellLayout: 2
  m_CellSwizzle: 0
--- !u!114 &3153831021999404534
MonoBehaviour:
  m_ObjectHideFlags: 0
  m_CorrespondingSourceObject: {fileID: 0}
  m_PrefabInstance: {fileID: 0}
  m_PrefabAsset: {fileID: 0}
  m_GameObject: {fileID: 0}
  m_Enabled: 1
  m_EditorHideFlags: 0
  m_Script: {fileID: 12395, guid: 0000000000000000e000000000000000, type: 0}
  m_Name: Palette Settings
  m_EditorClassIdentifier: 
  cellSizing: 100
